{
  "imports": {
    "lume/": "https://cdn.jsdelivr.net/gh/lumeland/lume@2.3.0/",
    "lume/cms/": "https://cdn.jsdelivr.net/gh/lumeland/cms@0.5.10/"
  },
  "tasks": {
    "lume": "echo \"import 'lume/cli.ts'\" | deno run -A -",
    "build": "deno task lume",
    "serve": "deno task lume -s",
    "cms": "deno task lume cms",
    "update-deps": "deno run -A --quiet 'https://deno.land/x/nudd@v0.2.8/cli.ts' update deno.json *.ts"
  },
  "compilerOptions": {
    "types": ["lume/types.ts"]
  },
  "lint": {
    "exclude": ["./_site"],
    "rules": {
      "tags": ["recommended"]
    }
  },
  "fmt": {
    "exclude": ["./_site"]
  }
}
